{
    "definition": {
        "$schema": "https://schema.management.azure.com/providers/Microsoft.Logic/schemas/2016-06-01/workflowdefinition.json#",
        "actions": {
            "Initialize_Message_array": {
                "type": "InitializeVariable",
                "inputs": {
                    "variables": [
                        {
                            "name": "Messages",
                            "type": "array"
                        }
                    ]
                },
                "runAfter": {
                    "Tracking_Properties": [
                        "Succeeded"
                    ]
                }
            },
            "Get_Messages": {
                "type": "ServiceProvider",
                "inputs": {
                    "parameters": {
                        "storedProcedureName": "[msgbox].[usp_PollMessages]",
                        "storedProcedureParameters": {
                            "Type": "Product",
                            "Process": "ProductCreation",
                            "Source": "BIB-UK",
                            "Target": "ANZ",
                            "TargetBatch": "2"
                        }
                    },
                    "serviceProviderConfiguration": {
                        "connectionName": "sql",
                        "operationId": "executeStoredProcedure",
                        "serviceProviderId": "/serviceProviders/sql"
                    }
                },
                "runAfter": {
                    "Initialize_Message_array": [
                        "Succeeded"
                    ]
                }
            },
            "Tracking_Properties": {
                "type": "Compose",
                "inputs": {
                    "InterfaceId": "@parameters('InterfaceId')"
                },
                "runAfter": {},
                "trackedProperties": {
                    "InterfaceId": "@{outputs('Tracking_Properties')?['InterfaceId']}"
                }
            },
            "Get_Messages_Status_Code": {
                "type": "Switch",
                "expression": "@outputs('Get_Messages')?['statusCode']",
                "cases": {
                    "Ok": {
                        "case": 200,
                        "actions": {
                            "Set_Message_Array": {
                                "type": "SetVariable",
                                "inputs": {
                                    "name": "Messages",
                                    "value": "@json(coalesce(body('Get_Messages')?['ResultSets']?[0]?[0]?['JsonData'], '[]'))"
                                },
                                "runAfter": {}
                            },
                            "For_each_message": {
                                "type": "Foreach",
                                "foreach": "@variables('Messages')",
                                "actions": {
                                    "Invoke_ANZ_message_processor": {
                                        "type": "Workflow",
                                        "inputs": {
                                            "host": {
                                                "workflow": {
                                                    "id": "wf-snd-bib-anz-title-http"
                                                }
                                            },
                                            "headers": {
                                                "TrackingId": "@items('For_each_message')?['header']?['trackingId']",
                                                "MessageId": "@items('For_each_message')?['header']?['messageId']"
                                            },
                                            "body": "@items('For_each_message')?['message']?['payload']"
                                        },
                                        "runAfter": {}
                                    },
                                    "ANZ_message_processor_executed_successfully": {
                                        "type": "If",
                                        "expression": {
                                            "and": [
                                                {
                                                    "equals": [
                                                        "@int(outputs('Invoke_ANZ_message_processor')?['statusCode'])",
                                                        200
                                                    ]
                                                }
                                            ]
                                        },
                                        "actions": {},
                                        "runAfter": {
                                            "Invoke_ANZ_message_processor": [
                                                "Succeeded"
                                            ]
                                        },
                                        "else": {
                                            "actions": {
                                                "Compose_Fault_Messages": {
                                                    "type": "Compose",
                                                    "inputs": {
                                                        "fault": {
                                                            "faultActor": "@concat(workflow()?['name'], '.', ' (', workflow()?['run']?['name'], ')')",
                                                            "faultCategory": "Error",
                                                            "faultCode": "@outputs('Invoke_ANZ_message_processor')?['statusCode']",
                                                            "faultMessage": "An error occurred whilst executing anz processor",
                                                            "faultReason": null,
                                                            "innerFault": "@{body('Invoke_ANZ_message_processor')}",
                                                            "trackingId": "@trigger().clientTrackingId",
                                                            "messageId": "@items('For_each_message')?['header']?['messageId']",
                                                            "additionalDetails": {
                                                                "logicApp": {
                                                                    "workflowName": "@workflow()?['name']",
                                                                    "runId": "@workflow()?['run']?['name']"
                                                                }
                                                            }
                                                        }
                                                    },
                                                    "runAfter": {}
                                                },
                                                "Execute_SetMessageFault_stored_procedure": {
                                                    "type": "ServiceProvider",
                                                    "inputs": {
                                                        "parameters": {
                                                            "storedProcedureName": "[msgbox].[usp_SetMessageFault]",
                                                            "storedProcedureParameters": {
                                                                "MessageId": "@items('For_each')?['header']?['messageId']",
                                                                "Fault": "@outputs('Invoke_ANZ_message_processor')['statusCode']",
                                                                "FaultStack": "@{outputs('Compose_Fault_Messages')}"
                                                            }
                                                        },
                                                        "serviceProviderConfiguration": {
                                                            "connectionName": "sql",
                                                            "operationId": "executeStoredProcedure",
                                                            "serviceProviderId": "/serviceProviders/sql"
                                                        }
                                                    },
                                                    "runAfter": {
                                                        "Compose_Fault_Messages": [
                                                            "Succeeded"
                                                        ]
                                                    }
                                                }
                                            }
                                        }
                                    }
                                },
                                "runAfter": {
                                    "Set_Message_Array": [
                                        "Succeeded"
                                    ]
                                }
                            }
                        }
                    }
                },
                "default": {
                    "actions": {}
                },
                "runAfter": {
                    "Get_Messages": [
                        "Succeeded",
                        "TIMEDOUT",
                        "SKIPPED",
                        "FAILED"
                    ]
                }
            }
        },
        "triggers": {
            "Recurrence": {
                "type": "Recurrence",
                "recurrence": {
                    "frequency": "Minute",
                    "interval": 1
                }
            }
        },
        "contentVersion": "1.0.0.0",
        "outputs": {}
    },
    "kind": "Stateful"
}
