{
  "version": "2.0",
  "logging": {
    "logLevel": { "default": "Trace" },
    "applicationInsights": {
      "samplingSettings": {
        "isEnabled": true,
        "excludedTypes": "Request"
      }
    }
  }
}
